/dev/sda: Disk label type: dos
/dev/sda1: UUID="cf15fd47-ea92-4f4f-a4df-e9e9a74001a4" TYPE="ext4" PTTYPE="dos" 
/dev/sda2: UUID="NOTbW3-CaiS-kNe2-WpLU-2VRF-xd80-nFA0pu" TYPE="LVM2_member" 
Filesystem              Type      Size  Used Avail Use% Mounted on
/dev/mapper/system-root ext4      5.3G  3.7G  1.3G  74% /
/dev/mapper/system-home ext4      8.0G   24M  7.5G   1% /home
/dev/sda1               ext4      379M   90M  266M  26% /boot
rackmaster:/srv/commons nfs4       64G   38G   27G  59% /net/rackmaster/srv/commons
