total 48
drwxrwxrwt 5 root     root          4096 Aug 19  2015 .
drwxr-xr-x 1 root     root           188 Aug 19 12:24 ..
-rw-rw-r-- 1 dgoodman         1000     0 Aug 19 12:31 blah
-rw-r--r-- 1 dgoodman users            0 Aug 19 12:42 centos.txt
drwxrwsr-x 2 fred     contractors   4096 Aug 19  2015 contractors
-r--r--r-- 1 dgoodman users           16 Aug 19 15:32 EmployeeHandbook
drwxrws--T 2 bob      linux_admins  4096 Aug 19  2015 linux_admins
drwx------ 2 root     root         16384 Aug 19 10:20 lost+found
-rw-rw-r-- 1 bob      bob              0 Aug 19  2015 SharingDocumentsLab-DirOutput.txt
-rw-rw-r-- 1 dgoodman         1000     0 Aug 19 12:27 someuser
