    1  whoami
    2  history 10
    3  history
    4  exit
    5  exut
    6  exit
    7  ip a
    8  sudo vi /etc/auto.master
    9  sudo vim /etc/group
   10  su - carolyn
   11  sudo vi /etc/auto.master
   12  exit
   13  sudo vi /etc/auto.master
   14  ls   /etc
   15  ls   /etc/a*
   16  sudo yum autofs
   17  sudo yum install autofs
   18  echo sudo yum install autofs > labSolns.out
   19  cat labSolns.out 
   20  cat labSolns.out vi
   21  sudo vi /etc/auto.master
   22  echo "sudo vi /etc/auto.master" >> labSolns.out 
   23  sudo systemctl start autofs
   24  echo "sudo systemctl start autofs" >> labSolns.out 
   25  sudo yum install nfsutils
   26  sudo yum install nfs-utils
   27  echo "sudo yum install nfs-utils" >> labSolns.out 
   28  sudo systemctl restart auto.fs
   29  sudo systemctl restart autofs
   30  echo "sudo systemctl restart autofs" >> labSolns.out 
   31  ll /net/192.163.134.1/srv
   32  ll /net/192.163.134.1
   33  ll /net
   34  cat labSolns.out 
   35  ls /net
   36  cat /etc/auto.master
   37  sudo systemctl restart autofs
   38  ll /net/192.163.134.1
   39  ll /net/192.168.134.1
   40  cat /net/192.168.134.1/srv/commons/add-to-hosts 
   41  echo "cat /net/192.168.134.1/srv/commons/add-to-hosts " >> labSolns.out 
   42  cat /net/192.168.134.1/srv/commons/add-to-hosts | sudo tee -a /etc/hosts
   43  echo "cat /net/192.168.134.1/srv/commons/add-to-hosts | sudo tee -a /etc/hosts" >> labSolns.out 
   44  sudo systemctl enable autofs
   45  echo "sudo systemctl enable autofs" >> labSolns.out 
   46  sudo ln -s /net/192.168.134.1/srv/commons/ /commons
   47  echo "sudo ln -s /net/192.168.134.1/srv/commons/ /commons" >> labSolns.out 
   48  ls /commons
   49  cp labSolns.out /commons/rosebud/centos.labSolns.out
   50  ls
   51  history > hist.out
    1  whoami
    2  history 10
    3  history
    4  exit
    5  exut
    6  exit
    7  ip a
    8  sudo vi /etc/auto.master
    9  sudo vim /etc/group
   10  su - carolyn
   11  sudo vi /etc/auto.master
   12  exit
   13  ip a
   14  ls /etc/net*
   15  ll /etc/sysconfig/network-scripts/ifcfg-enp0s3 
   16  sudo vim /etc/sysconfig/network-scripts/ifcfg-enp0s3 
   17  sudo vi /etc/sysconfig/network-scripts/ifcfg-enp0s3 
   18  reboot
   19  ip a
   20  history
   21  ls
   22  history >> hist.out
